<?xml version="1.0" encoding="UTF-8" standalone="no"?>
<svg
   xmlns:dc="http://purl.org/dc/elements/1.1/"
   xmlns:cc="http://creativecommons.org/ns#"
   xmlns:rdf="http://www.w3.org/1999/02/22-rdf-syntax-ns#"
   xmlns:svg="http://www.w3.org/2000/svg"
   xmlns="http://www.w3.org/2000/svg"
   xmlns:sodipodi="http://sodipodi.sourceforge.net/DTD/sodipodi-0.dtd"
   xmlns:inkscape="http://www.inkscape.org/namespaces/inkscape"
   width="210mm"
   height="297mm"
   viewBox="0 0 210 297"
   version="1.1"
   id="svg8"
   inkscape:version="1.0.2 (e86c870879, 2021-01-15)"
   sodipodi:docname="hex_icon.svg">
  <defs
     id="defs2" />
  <sodipodi:namedview
     id="base"
     pagecolor="#ffffff"
     bordercolor="#666666"
     borderopacity="1.0"
     inkscape:pageopacity="0.0"
     inkscape:pageshadow="2"
     inkscape:zoom="1.4"
     inkscape:cx="368.64708"
     inkscape:cy="473.44192"
     inkscape:document-units="mm"
     inkscape:current-layer="layer1"
     inkscape:document-rotation="0"
     showgrid="false"
     inkscape:window-width="1920"
     inkscape:window-height="1052"
     inkscape:window-x="0"
     inkscape:window-y="0"
     inkscape:window-maximized="1" />
  <metadata
     id="metadata5">
    <rdf:RDF>
      <cc:Work
         rdf:about="">
        <dc:format>image/svg+xml</dc:format>
        <dc:type
           rdf:resource="http://purl.org/dc/dcmitype/StillImage" />
        <dc:title></dc:title>
      </cc:Work>
    </rdf:RDF>
  </metadata>
  <g
     inkscape:label="Calque 1"
     inkscape:groupmode="layer"
     id="layer1">
    <path
       style="fill:#f49c00;stroke:none;stroke-width:0.264583px;stroke-linecap:butt;stroke-linejoin:miter;stroke-opacity:1;fill-opacity:0.71542847"
       d="m 75.254172,79.665125 c 50.889478,0.01035 50.842228,-0.189727 50.842228,-0.189727 4.39811,0.340606 7.25862,2.120141 9.0825,4.956508 l 25.28823,43.978124 c 2.56313,4.01081 1.78788,7.58647 0.5367,11.1001 l -25.86701,43.89026 c -2.08695,2.59317 -4.60637,4.7287 -9.13934,4.73357 l -51.139,0.19932 c -4.867695,-0.43287 -7.186844,-2.93395 -9.193239,-5.68884 l -25.24615,-43.30632 c -2.382085,-3.48058 -1.592816,-7.35894 0.0096,-11.33929 L 65.698466,84.798809 c 2.205631,-3.456086 5.424882,-5.106725 9.555706,-5.133684 z"
       id="path847"
       sodipodi:nodetypes="ccccccccccccc" />
  </g>
</svg>
